ミクロ政治データ分析実習
…
---

# `.csv`ファイルの読み込み（２）

* データの中身を確認する

```r
MyData1
```

```
## # A tibble: 47 x 13
##       ID Pref   Zaisei Over65 Under30 Jimin Minshin Komei Kyosan Ishin
##    <dbl> <chr>   <dbl>  <dbl>   <dbl> <dbl>   <dbl> <dbl>  <dbl> <dbl>
##  1     1 北海道  0.419   29.1    24.7  32.8    30.6 13.4    3.43 11.4 
##  2     2 青森県  0.332   30.1    23.9  40.4    24.6 12.8    3.82  8.92
##  3     3 岩手県  0.341   30.4    24.5  34.9    22.4  8.61   5.16 11.2 
##  4     4 宮城県  0.596   25.8    27.3  36.7    25.4 13.4    3.97  9.99
##  5     5 秋田県  0.299   33.8    21.4  43.5    22.7 11.2    5.17  7.56
##  6     6 山形県  0.342   30.8    24.8  42.5    21.5 11.8    4.3   7.6 
##  7     7 福島県  0.509   28.7    25.2  33.8    28.3 11.0    3.43 10.4 
##  8     8 茨城県  0.633   26.8    26.6  40.6    19.0 15.0    6.67 10.1 
##  9     9 栃木県  0.622   25.9    26.8  38.8    21.6 12.4   10.9   7   
## 10    10 群馬県  0.603   27.6    26.6  42.1    19.3 13.8    5.61 10   
## # … with 37 more rows, and 3 more variables: Shamin <dbl>, Region2 <dbl>,
## #   Region6 <dbl>
```
…
---

# `.xlsx`ファイルの読み込み（２）

* データの中身を確認する

```r
MyData2
```

```
## # A tibble: 47 x 13
##       ID Pref   Zaisei Over65 Under30 Jimin Minshin Komei Kyosan Ishin
##    <dbl> <chr>   <dbl>  <dbl>   <dbl> <dbl>   <dbl> <dbl>  <dbl> <dbl>
##  1     1 北海道  0.419   29.1    24.7  32.8    30.6 13.4    3.43 11.4 
##  2     2 青森県  0.332   30.1    23.9  40.4    24.6 12.8    3.82  8.92
##  3     3 岩手県  0.341   30.4    24.5  34.9    22.4  8.61   5.16 11.2 
##  4     4 宮城県  0.596   25.8    27.3  36.7    25.4 13.4    3.97  9.99
##  5     5 秋田県  0.299   33.8    21.4  43.5    22.7 11.2    5.17  7.56
##  6     6 山形県  0.342   30.8    24.8  42.5    21.5 11.8    4.3   7.6 
##  7     7 福島県  0.509   28.7    25.2  33.8    28.3 11.0    3.43 10.4 
##  8     8 茨城県  0.633   26.8    26.6  40.6    19.0 15.0    6.67 10.1 
##  9     9 栃木県  0.622   25.9    26.8  38.8    21.6 12.4   10.9   7   
## 10    10 群馬県  0.603   27.6    26.6  42.1    19.3 13.8    5.61 10   
## # … with 37 more rows, and 3 more variables: Shamin <dbl>, Region2 <dbl>,
## #   Region6 <dbl>
```

---

# 文字化けの場合

* masOSとWindows間の文字コードの違い
  * 世界標準はmacOS, Linuxなどが採用しているUTF-8
* 英数字のみのデータは問題ないケースが多いが、マルチバイト文字（日本語、韓国語、中国語など）では問題が深刻
  * Excel形式でも使用OSによって文字化けが生じる場合も

#### 文字化けの例 (`Pref`列)

```
## # A tibble: 47 x 11
##      ID Pref      Zaisei Over65 Under30   LDP   DPJ Komei Ishin   JCP   SDP
##   <dbl> <chr>      <dbl>  <dbl>   <dbl> <dbl> <dbl> <dbl> <dbl> <dbl> <dbl>
## 1     1 "\x96k\x…  0.419   29.1    24.7  32.8  30.6 13.4   3.43 11.4   1.68
## 2     2 "\x90\xc…  0.332   30.1    23.9  40.4  24.6 12.8   3.82  8.92  3.41
## 3     3 "\x8a\xe…  0.341   30.4    24.5  34.9  22.4  8.61  5.16 11.2   5.29
## 4     4 "\x8b{\x…  0.596   25.8    27.3  36.7  25.4 13.4   3.97  9.99  3.62
## 5     5 "\x8fH\x…  0.299   33.8    21.4  43.5  22.7 11.2   5.17  7.56  5.12
## 6     6 "\x8eR\x…  0.342   30.8    24.8  42.5  21.5 11.8   4.3   7.6   5.2 
## 7     7 "\x95\x9…  0.509   28.7    25.2  33.8  28.3 11.0   3.43 10.4   3.24
## # … with 40 more rows
```
…
